firstName,lastName,dateOfBirth
Jimmy,,1979-05-10
Bugs,,1945-12-10
Liam,,1945-12-10
Noah,,1945-12-10
Oliver,,1945-12-10
Elijah,,1945-12-10
William,,1945-12-10
James,,1945-12-10
Emma,,1945-12-10
Ava,,1945-12-10
Sophia,,1945-12-10
Isabella,,1945-12-10
Charlotte,,1945-12-10
Amelia,,1945-12-10
Mia,,1945-12-10
Jimmy,,1979-05-10
Bugs,,1945-12-10
Liam,,1945-12-10
Noah,,1945-12-10
Oliver,,1945-12-10
Elijah,,1945-12-10
William,,1945-12-10
James,,1945-12-10
Emma,,1945-12-10
Ava,,1945-12-10
Sophia,,1945-12-10
Isabella,,1945-12-10
Charlotte,,1945-12-10
Amelia,,1945-12-10
Mia,,1945-12-10
Jimmy,,1979-05-10
Bugs,,1945-12-10
Liam,,1945-12-10
Noah,,1945-12-10
Oliver,,1945-12-10
Elijah,,1945-12-10
William,,1945-12-10
James,,1945-12-10
Emma,,1945-12-10
Ava,,1945-12-10
Sophia,,1945-12-10
Isabella,,1945-12-10
Charlotte,,1945-12-10
Amelia,,1945-12-10
Mia,,1945-12-10