bankTraderId,bloombergId,icapId
AB796803,000000,icap000000
CD878491,000001,icap000001
AB688248,000002,icap000002
EF186144,000003,icap000003
CD575835,000004,icap000004
EF613958,000005,icap000005
EF010709,000006,icap000006
AB296244,000007,icap000007
EF321263,000008,icap000008
AB501161,000009,icap000009
AB520679,00000A,icap000010
AB385493,00000B,icap000011
AB296244,00000C,icap000012
EF493747,00000D,icap000013
AB296244,00000E,icap000014
EF186144,00000F,icap000015
EF493747,00000G,icap000016
AB492148,00000H,icap000017
EF049760,00000I,icap000018
AB296244,00000J,icap000019
CD406571,00000K,icap000020
AB352925,00000L,icap000021
AB352925,00000M,icap000022
AB688248,00000N,icap000023
AB203024,00000O,icap000024
CD101016,00000P,icap000025
EF893958,00000Q,icap000026
CD053293,00000R,icap000027
AB296244,00000S,icap000028
EF893958,00000T,icap000029
EF131564,00000U,icap000030
EF010709,00000V,icap000031
AB520679,00000W,icap000032
EF667281,00000X,icap000033
AB359325,00000Y,icap000034
AB520679,00000Z,icap000035
CD164056,000010,icap000036
AB359325,000011,icap000037
CD878491,000012,icap000038
AB352925,000013,icap000039
CD058900,000014,icap000040
EF667281,000015,icap000041
EF010709,000016,icap000042
AB821583,000017,icap000043
EF131564,000018,icap000044
CD586196,000019,icap000045
CD164056,00001A,icap000046
EF533781,00001B,icap000047
CD740628,00001C,icap000048
CD878491,00001D,icap000049
